(module "Bourns_2093" (layer F.Cu) (tedit 5F6186DE)
  (attr smd)
  (fp_text reference "REF**" (at 0 0 unlocked) (layer F.SilkS)
    (effects (font (size 1 1) (thickness 0.15)))
    (tstamp 7703e206-ef1a-4233-879e-baeaa85bb9da)
  )
  (fp_text value "Bourns_2093" (at 0 -0.5 unlocked) (layer F.Fab)
    (effects (font (size 1 1) (thickness 0.15)))
    (tstamp 72c69f50-b987-4e93-aece-9e3c2394b9ac)
  )
  (fp_text user "${REF}" (at 0 1 unlocked) (layer F.Fab)
    (effects (font (size 1 1) (thickness 0.15)))
    (tstamp 3e72798a-53ce-40c8-8ac5-4de2c94ea61e)
  )
  (fp_rect (start -2.65 -3.85) (end -2.65 3.85) (layer F.CrtYd) (width 0.05) (tstamp 28dab9f4-9696-4102-883b-1672093364ac))
  (fp_rect (start -2.65 3.85) (end 2.65 3.85) (layer F.CrtYd) (width 0.05) (tstamp 4f452890-29f6-42e6-97e0-a9a4139b1e41))
  (fp_rect (start 2.65 -3.85) (end -2.65 -3.85) (layer F.CrtYd) (width 0.05) (tstamp 6c90cf74-40c0-474e-b1ca-0536b0be9923))
  (fp_rect (start 2.65 3.85) (end 2.65 -3.85) (layer F.CrtYd) (width 0.05) (tstamp a92bc674-b98e-4933-96de-37767365edc2))
  (pad "1" smd roundrect (at -1.75 0) (size 1.3 7.2) (layers "F.Cu" "F.Paste" "F.Mask") (roundrect_rratio 0.35) (tstamp 7d9df301-562d-47d7-a71b-761113a429c9))
  (pad "3" smd roundrect (at 1.75 0) (size 1.3 7.2) (layers "F.Cu" "F.Paste" "F.Mask") (roundrect_rratio 0.35) (tstamp 88c19851-3838-41f9-bc2d-72416bcc9e51))
  (model "${KIPRJMOD}/../../libraries/3d/2093-xxx-sm.stp"
    (offset (xyz -2.1 0 3.1))
    (scale (xyz 1 1 1))
    (rotate (xyz 0 0 0))
  )
)
