(module "DIN41612_R_3x32_Horizontal" (layer F.Cu) (tedit 5F470A7C)
  (descr "DIN 41612 connector, type R, horizontal, 32 pins wide, 3 rows, full configuration")
  (tags "DIN 41512 IEC 60603 B")
  (zone_connect 1)
  (fp_text reference "P1" (at -4.435 2.54 270) (layer F.SilkS)
    (effects (font (size 0.8128 0.8128) (thickness 0.1524)))
    (tstamp 18dd8012-83b3-4276-8a74-7126ceb6648b)
  )
  (fp_text value "DIN41612_M_3x32" (at 39.38 -3.712) (layer F.Fab)
    (effects (font (size 0.8128 0.8128) (thickness 0.1524)))
    (tstamp 8ae72158-cc29-4430-9e72-cca307416c14)
  )
  (fp_text user "Board edge" (at 39.37 -7.3 180) (layer Cmts.User)
    (effects (font (size 0.7 0.7) (thickness 0.1)))
    (tstamp ac4eef67-ce15-48d2-9c65-661ca08bd4cc)
  )
  (fp_text user "${REFERENCE}" (at 39.37 -2.54 180) (layer F.Fab)
    (effects (font (size 0.8128 0.8128) (thickness 0.1524)))
    (tstamp d7cfac34-a7b6-4027-94e4-9d357d6e6ded)
  )
  (fp_line (start -4.38 -5.3) (end 83.12 -5.3) (layer Dwgs.User) (width 0.08) (tstamp 68e3a588-e06c-4454-bfa0-49cde8987708))
  (fp_line (start 39.17 -5.9) (end 39.37 -5.4) (layer Cmts.User) (width 0.1) (tstamp 0ac9275d-73cc-4ca4-8ab5-fb7992fb1441))
  (fp_line (start 39.37 -6.8) (end 39.37 -5.4) (layer Cmts.User) (width 0.1) (tstamp 1758f036-1f0b-4550-b9e4-13df917c72f9))
  (fp_line (start 39.37 -5.4) (end 39.57 -5.9) (layer Cmts.User) (width 0.1) (tstamp 36b99833-2a38-4387-9bee-76c4bc1c8a02))
  (fp_line (start -1.35 0.46) (end -8.13 0.46) (layer F.CrtYd) (width 0.05) (tstamp 13743412-a59f-4524-bac6-fcb4d828d4ec))
  (fp_line (start 86.87 0.46) (end 80.87 0.46) (layer F.CrtYd) (width 0.05) (tstamp 1fbcbdef-04e6-4c60-8cb0-a3a0b7f374bc))
  (fp_line (start 83.62 -13.24) (end 83.62 -5.54) (layer F.CrtYd) (width 0.05) (tstamp 27920ae8-ec57-469d-af48-dc9f89c68bf8))
  (fp_line (start -4.88 -5.54) (end -4.88 -13.24) (layer F.CrtYd) (width 0.05) (tstamp 3089f1bb-2a32-45a6-8d7f-e60fe0cdb65b))
  (fp_line (start -4.88 -13.24) (end 83.62 -13.24) (layer F.CrtYd) (width 0.05) (tstamp 38ef098f-75c0-4825-9d30-485a9602f2ed))
  (fp_line (start -8.13 -5.54) (end -4.88 -5.54) (layer F.CrtYd) (width 0.05) (tstamp 4622f8dd-22e6-487d-8b6f-4fbc3447f771))
  (fp_line (start 83.62 -5.54) (end 86.87 -5.54) (layer F.CrtYd) (width 0.05) (tstamp 6e59a408-0ea8-46e5-8047-e57200c81c4d))
  (fp_line (start 80.87 0.46) (end 80.09 0.46) (layer F.CrtYd) (width 0.05) (tstamp 92a7567b-8e28-451c-a3b6-b2079901ca76))
  (fp_line (start -8.13 0.46) (end -8.13 -5.54) (layer F.CrtYd) (width 0.05) (tstamp 9ebe5aad-83ac-4136-80f9-e9405c7fab07))
  (fp_line (start -1.35 6.43) (end -1.35 0.46) (layer F.CrtYd) (width 0.05) (tstamp a70c008e-300e-48cd-8403-20dbefbc2059))
  (fp_line (start 80.09 0.46) (end 80.09 6.43) (layer F.CrtYd) (width 0.05) (tstamp bba5cf5e-f23f-478d-b43e-c2d8df38f8d2))
  (fp_line (start 86.87 -5.54) (end 86.87 0.46) (layer F.CrtYd) (width 0.05) (tstamp d34bd2e0-4220-4874-8c1d-a0dc441b44a4))
  (fp_line (start 80.09 6.43) (end -1.35 6.43) (layer F.CrtYd) (width 0.05) (tstamp f77b8d9b-9b18-4b1a-b2e2-e82850b321ee))
  (fp_line (start 81.37 -0.54) (end -2.63 -0.54) (layer F.Fab) (width 0.1) (tstamp 134427f3-bc00-4c47-8f6f-73c46ed54973))
  (fp_line (start 81.37 -0.04) (end 81.37 -0.54) (layer F.Fab) (width 0.1) (tstamp 2e826971-2c5d-4bbf-b4ed-1cf1860a2f73))
  (fp_line (start 86.37 -0.04) (end 81.37 -0.04) (layer F.Fab) (width 0.1) (tstamp 3bad6ca3-c7bc-4ba4-bbdd-3be3d2058df6))
  (fp_line (start -7.63 -0.04) (end -7.63 -5.04) (layer F.Fab) (width 0.1) (tstamp 47b9acfa-29fd-4534-bc16-a9d1b9231818))
  (fp_line (start 86.37 -5.04) (end 86.37 -0.04) (layer F.Fab) (width 0.1) (tstamp 5d518f75-d670-47eb-a0b3-6d967f4cf9bf))
  (fp_line (start 83.12 -5.04) (end 86.37 -5.04) (layer F.Fab) (width 0.1) (tstamp 8e8a7e66-91d0-4b71-9fa4-2dfa1172604a))
  (fp_line (start -4.38 -12.74) (end 83.12 -12.74) (layer F.Fab) (width 0.1) (tstamp ac3810ee-c9b0-4e90-9467-25a057c9d071))
  (fp_line (start 83.12 -12.74) (end 83.12 -5.04) (layer F.Fab) (width 0.1) (tstamp bcf9c713-940a-4886-8629-080de9dc65fc))
  (fp_line (start -2.63 -0.04) (end -7.63 -0.04) (layer F.Fab) (width 0.1) (tstamp cef387a2-5c23-4c54-be98-68d950f30059))
  (fp_line (start -2.63 -0.54) (end -2.63 -0.04) (layer F.Fab) (width 0.1) (tstamp e10e2492-a71d-40f3-8cc9-88c7e07d7136))
  (fp_line (start -4.38 -5.04) (end -4.38 -12.74) (layer F.Fab) (width 0.1) (tstamp f034d6fd-60b0-44bc-b490-beebbbbb2bdd))
  (fp_line (start -7.63 -5.04) (end -4.38 -5.04) (layer F.Fab) (width 0.1) (tstamp f9406704-72b8-4b31-b04e-e1c92ba5d4b8))
  (pad "" np_thru_hole circle (at -5.08 -2.54) (size 2.8 2.8) (drill 2.8) (layers *.Cu *.Mask)
    (zone_connect 1) (tstamp 389a4373-bc0e-41b0-aff2-740f3f9706ce))
  (pad "" np_thru_hole circle (at 83.82 -2.54) (size 2.8 2.8) (drill 2.8) (layers *.Cu *.Mask)
    (zone_connect 1) (tstamp fff2a23d-9d63-4061-94fe-9003f67f60ef))
  (pad "A1" thru_hole rect (at 78.74 0) (size 1.7 1.7) (drill 1) (layers *.Cu *.Mask)
    (zone_connect 1) (tstamp 22192613-2fca-4427-b0e8-45c0d0f0dbe0))
  (pad "A2" thru_hole circle (at 76.2 0) (size 1.7 1.7) (drill 1) (layers *.Cu *.Mask)
    (zone_connect 1) (tstamp 81794c39-1357-4cbb-96a3-0f6916f7cabd))
  (pad "A3" thru_hole circle (at 73.66 0) (size 1.7 1.7) (drill 1) (layers *.Cu *.Mask)
    (zone_connect 1) (tstamp 5208cffe-18c6-4413-a801-6da57b765bae))
  (pad "A4" thru_hole circle (at 71.12 0) (size 1.7 1.7) (drill 1) (layers *.Cu *.Mask)
    (zone_connect 1) (tstamp 7a056775-4aed-456e-ae0f-82bb79925fea))
  (pad "A5" thru_hole circle (at 68.58 0) (size 1.7 1.7) (drill 1) (layers *.Cu *.Mask)
    (zone_connect 1) (tstamp 37d091db-7ad9-4429-a428-047a2db45561))
  (pad "A6" thru_hole circle (at 66.04 0) (size 1.7 1.7) (drill 1) (layers *.Cu *.Mask)
    (zone_connect 1) (tstamp 71198c59-ed6a-4a90-97a2-c8442306a29e))
  (pad "A7" thru_hole circle (at 63.5 0) (size 1.7 1.7) (drill 1) (layers *.Cu *.Mask)
    (zone_connect 1) (tstamp ba588a3a-8e32-431e-9667-0520dc01a6ea))
  (pad "A8" thru_hole circle (at 60.96 0) (size 1.7 1.7) (drill 1) (layers *.Cu *.Mask)
    (zone_connect 1) (tstamp 5d3ce812-c5b6-4246-b255-8eb433ab71be))
  (pad "A9" thru_hole circle (at 58.42 0) (size 1.7 1.7) (drill 1) (layers *.Cu *.Mask)
    (zone_connect 1) (tstamp 586a944c-b3fe-4ec2-9c0b-ab46fa044dfd))
  (pad "A10" thru_hole circle (at 55.88 0) (size 1.7 1.7) (drill 1) (layers *.Cu *.Mask)
    (zone_connect 1) (tstamp 36f7ee27-e8ff-4042-959a-438e2990ac39))
  (pad "A11" thru_hole circle (at 53.34 0) (size 1.7 1.7) (drill 1) (layers *.Cu *.Mask)
    (zone_connect 1) (tstamp fa35dcff-01a7-48b1-946e-254f3a1d78df))
  (pad "A12" thru_hole circle (at 50.8 0) (size 1.7 1.7) (drill 1) (layers *.Cu *.Mask)
    (zone_connect 1) (tstamp a3901dbe-3a4c-42f6-93d8-6b70817a94c4))
  (pad "A13" thru_hole circle (at 48.26 0) (size 1.7 1.7) (drill 1) (layers *.Cu *.Mask)
    (zone_connect 1) (tstamp 9b358d01-d75a-40a1-b036-c375407b0ad9))
  (pad "A14" thru_hole circle (at 45.72 0) (size 1.7 1.7) (drill 1) (layers *.Cu *.Mask)
    (zone_connect 1) (tstamp 4d1ed3a4-36ff-4ec5-be95-6116d61f99d4))
  (pad "A15" thru_hole circle (at 43.18 0) (size 1.7 1.7) (drill 1) (layers *.Cu *.Mask)
    (zone_connect 1) (tstamp 22ea2ddb-e2ba-4b01-92e6-4842cbbac97b))
  (pad "A16" thru_hole circle (at 40.64 0) (size 1.7 1.7) (drill 1) (layers *.Cu *.Mask)
    (zone_connect 1) (tstamp 85fe6842-1cd9-47c8-b35f-fed77f9b3cf7))
  (pad "A17" thru_hole circle (at 38.1 0) (size 1.7 1.7) (drill 1) (layers *.Cu *.Mask)
    (zone_connect 1) (tstamp 05941d51-7e61-45bf-8835-1634c97d0e40))
  (pad "A18" thru_hole circle (at 35.56 0) (size 1.7 1.7) (drill 1) (layers *.Cu *.Mask)
    (zone_connect 1) (tstamp 3ed7267a-f2a9-4326-a3f2-8ae3135bd142))
  (pad "A19" thru_hole circle (at 33.02 0) (size 1.7 1.7) (drill 1) (layers *.Cu *.Mask)
    (zone_connect 1) (tstamp ebc1f2d9-f116-46f8-be19-c5bc4585071b))
  (pad "A20" thru_hole circle (at 30.48 0) (size 1.7 1.7) (drill 1) (layers *.Cu *.Mask)
    (zone_connect 1) (tstamp c9f658df-af62-43b8-9029-85a6e35304bd))
  (pad "A21" thru_hole circle (at 27.94 0) (size 1.7 1.7) (drill 1) (layers *.Cu *.Mask)
    (zone_connect 1) (tstamp c597c2a4-5211-46a5-907e-315dac9b23d7))
  (pad "A22" thru_hole circle (at 25.4 0) (size 1.7 1.7) (drill 1) (layers *.Cu *.Mask)
    (zone_connect 1) (tstamp 5e308e6b-9a46-4246-81dd-9341744de760))
  (pad "A23" thru_hole circle (at 22.86 0) (size 1.7 1.7) (drill 1) (layers *.Cu *.Mask)
    (zone_connect 1) (tstamp 28544ec3-3822-49ff-81ed-b7c304b0aced))
  (pad "A24" thru_hole circle (at 20.32 0) (size 1.7 1.7) (drill 1) (layers *.Cu *.Mask)
    (zone_connect 1) (tstamp 459b1903-b633-446e-9f7b-114f72376c20))
  (pad "A25" thru_hole circle (at 17.78 0) (size 1.7 1.7) (drill 1) (layers *.Cu *.Mask)
    (zone_connect 1) (tstamp c9db08af-c1e0-49c5-ba7c-d61bc1f26f08))
  (pad "A26" thru_hole circle (at 15.24 0) (size 1.7 1.7) (drill 1) (layers *.Cu *.Mask)
    (zone_connect 1) (tstamp ed080d11-b1af-439b-a7b9-7a2d2fcef95a))
  (pad "A27" thru_hole circle (at 12.7 0) (size 1.7 1.7) (drill 1) (layers *.Cu *.Mask)
    (zone_connect 1) (tstamp dc58de0c-bd2f-41df-857a-eb0176913644))
  (pad "A28" thru_hole circle (at 10.16 0) (size 1.7 1.7) (drill 1) (layers *.Cu *.Mask)
    (zone_connect 1) (tstamp dd7b0e26-2f6a-4f45-a843-5fafda641b03))
  (pad "A29" thru_hole circle (at 7.62 0) (size 1.7 1.7) (drill 1) (layers *.Cu *.Mask)
    (zone_connect 1) (tstamp a372730b-c034-49b8-b8a7-89b524d755e4))
  (pad "A30" thru_hole circle (at 5.08 0) (size 1.7 1.7) (drill 1) (layers *.Cu *.Mask)
    (zone_connect 1) (tstamp e45d657f-6f0c-456a-8616-93a0a0cab4ed))
  (pad "A31" thru_hole circle (at 2.54 0) (size 1.7 1.7) (drill 1) (layers *.Cu *.Mask)
    (zone_connect 1) (tstamp 74bb1f8f-f636-4663-a9b3-0f2f68eb58af))
  (pad "A32" thru_hole circle (at 0 0) (size 1.7 1.7) (drill 1) (layers *.Cu *.Mask)
    (zone_connect 1) (tstamp 72ba5b39-f3b5-4949-83a5-9d477ad93d52))
  (pad "B1" thru_hole circle (at 78.74 2.54) (size 1.7 1.7) (drill 1) (layers *.Cu *.Mask)
    (zone_connect 1) (tstamp b16ba4c9-022b-4840-a763-e722c130e1c4))
  (pad "B2" thru_hole circle (at 76.2 2.54) (size 1.7 1.7) (drill 1) (layers *.Cu *.Mask)
    (zone_connect 1) (tstamp d5044578-d1a1-4808-b77b-f89b651b5986))
  (pad "B3" thru_hole circle (at 73.66 2.54) (size 1.7 1.7) (drill 1) (layers *.Cu *.Mask)
    (zone_connect 1) (tstamp 7668f188-4b59-46d1-a839-78477f8d5aa2))
  (pad "B4" thru_hole circle (at 71.12 2.54) (size 1.7 1.7) (drill 1) (layers *.Cu *.Mask)
    (zone_connect 1) (tstamp b4d6007b-0354-420c-acd6-cf4a690d5c89))
  (pad "B5" thru_hole circle (at 68.58 2.54) (size 1.7 1.7) (drill 1) (layers *.Cu *.Mask)
    (zone_connect 1) (tstamp 9dfa0ab4-a8ab-4d1f-9e9a-bed209c044ca))
  (pad "B6" thru_hole circle (at 66.04 2.54) (size 1.7 1.7) (drill 1) (layers *.Cu *.Mask)
    (zone_connect 1) (tstamp 2a82acd8-1fc8-4bea-9512-0211590ec971))
  (pad "B7" thru_hole circle (at 63.5 2.54) (size 1.7 1.7) (drill 1) (layers *.Cu *.Mask)
    (zone_connect 1) (tstamp 82110001-89ff-484b-82ef-23015b746133))
  (pad "B8" thru_hole circle (at 60.96 2.54) (size 1.7 1.7) (drill 1) (layers *.Cu *.Mask)
    (zone_connect 1) (tstamp bd534b7a-64b7-4154-9706-3813f931332c))
  (pad "B9" thru_hole circle (at 58.42 2.54) (size 1.7 1.7) (drill 1) (layers *.Cu *.Mask)
    (zone_connect 1) (tstamp 94522bb0-6f6e-41e1-82cb-ccad5e5c874f))
  (pad "B10" thru_hole circle (at 55.88 2.54) (size 1.7 1.7) (drill 1) (layers *.Cu *.Mask)
    (zone_connect 1) (tstamp 058f0b41-2abd-4d57-85b7-1727974a1de7))
  (pad "B11" thru_hole circle (at 53.34 2.54) (size 1.7 1.7) (drill 1) (layers *.Cu *.Mask)
    (zone_connect 1) (tstamp 84915d71-5892-41fb-8714-c8f2bddded0d))
  (pad "B12" thru_hole circle (at 50.8 2.54) (size 1.7 1.7) (drill 1) (layers *.Cu *.Mask)
    (zone_connect 1) (tstamp 3924c432-5ae3-4f90-ae4a-8b3512b6d922))
  (pad "B13" thru_hole circle (at 48.26 2.54) (size 1.7 1.7) (drill 1) (layers *.Cu *.Mask)
    (zone_connect 1) (tstamp b28e74e7-8a59-4b04-bbf2-d8bb1cc58dae))
  (pad "B14" thru_hole circle (at 45.72 2.54) (size 1.7 1.7) (drill 1) (layers *.Cu *.Mask)
    (zone_connect 1) (tstamp b054e87c-6c09-4165-9762-0e281f84f4aa))
  (pad "B15" thru_hole circle (at 43.18 2.54) (size 1.7 1.7) (drill 1) (layers *.Cu *.Mask)
    (zone_connect 1) (tstamp 4cba0f65-cfb6-4eb9-a0a1-7bef9849e83c))
  (pad "B16" thru_hole circle (at 40.64 2.54) (size 1.7 1.7) (drill 1) (layers *.Cu *.Mask)
    (zone_connect 1) (tstamp 4d9bfd80-bb5c-4b0f-8333-1c8c37300003))
  (pad "B17" thru_hole circle (at 38.1 2.54) (size 1.7 1.7) (drill 1) (layers *.Cu *.Mask)
    (zone_connect 1) (tstamp aa5060ef-38aa-45ee-a29f-c3dc213cc788))
  (pad "B18" thru_hole circle (at 35.56 2.54) (size 1.7 1.7) (drill 1) (layers *.Cu *.Mask)
    (zone_connect 1) (tstamp 5d5b945a-086f-4bc9-9db8-c35a887a6a4b))
  (pad "B19" thru_hole circle (at 33.02 2.54) (size 1.7 1.7) (drill 1) (layers *.Cu *.Mask)
    (zone_connect 1) (tstamp 4f292f48-dee7-43cf-b524-29d939a0e125))
  (pad "B20" thru_hole circle (at 30.48 2.54) (size 1.7 1.7) (drill 1) (layers *.Cu *.Mask)
    (zone_connect 1) (tstamp ba35b6b2-14b0-4471-9541-6ec8d86da58b))
  (pad "B21" thru_hole circle (at 27.94 2.54) (size 1.7 1.7) (drill 1) (layers *.Cu *.Mask)
    (zone_connect 1) (tstamp cfa9d087-2c3e-469d-988b-926a75872d86))
  (pad "B22" thru_hole circle (at 25.4 2.54) (size 1.7 1.7) (drill 1) (layers *.Cu *.Mask)
    (zone_connect 1) (tstamp 20cb6cdc-e229-43c0-ba89-b91002427ff1))
  (pad "B23" thru_hole circle (at 22.86 2.54) (size 1.7 1.7) (drill 1) (layers *.Cu *.Mask)
    (zone_connect 1) (tstamp 2e6527df-fedd-4e78-baeb-a9d28755e724))
  (pad "B24" thru_hole circle (at 20.32 2.54) (size 1.7 1.7) (drill 1) (layers *.Cu *.Mask)
    (zone_connect 1) (tstamp 9caaf5ff-7fc7-4487-a228-21c03e1de5a0))
  (pad "B25" thru_hole circle (at 17.78 2.54) (size 1.7 1.7) (drill 1) (layers *.Cu *.Mask)
    (zone_connect 1) (tstamp 219d05d6-9ac1-4010-b72f-4aa9eb5c8e2b))
  (pad "B26" thru_hole circle (at 15.24 2.54) (size 1.7 1.7) (drill 1) (layers *.Cu *.Mask)
    (zone_connect 1) (tstamp 0194110a-37a0-433a-bf28-318dbec2c6b6))
  (pad "B27" thru_hole circle (at 12.7 2.54) (size 1.7 1.7) (drill 1) (layers *.Cu *.Mask)
    (zone_connect 1) (tstamp 320a099a-8872-4828-8bfa-c650af96e583))
  (pad "B28" thru_hole circle (at 10.16 2.54) (size 1.7 1.7) (drill 1) (layers *.Cu *.Mask)
    (zone_connect 1) (tstamp 9855efdf-944f-4e1b-910b-550841551cac))
  (pad "B29" thru_hole circle (at 7.62 2.54) (size 1.7 1.7) (drill 1) (layers *.Cu *.Mask)
    (zone_connect 1) (tstamp e01664f9-f9d8-4327-a51a-2846615f37b3))
  (pad "B30" thru_hole circle (at 5.08 2.54) (size 1.7 1.7) (drill 1) (layers *.Cu *.Mask)
    (zone_connect 1) (tstamp 73aa8e27-8bd0-4e11-ad32-0d62cef3933a))
  (pad "B31" thru_hole circle (at 2.54 2.54) (size 1.7 1.7) (drill 1) (layers *.Cu *.Mask)
    (zone_connect 1) (tstamp 8f41137d-48fc-480b-93d4-1f0d877e172a))
  (pad "B32" thru_hole circle (at 0 2.54) (size 1.7 1.7) (drill 1) (layers *.Cu *.Mask)
    (zone_connect 1) (tstamp 35aac099-5f29-456a-bdb6-b0ffc8d4bbb6))
  (pad "C1" thru_hole circle (at 78.74 5.08) (size 1.7 1.7) (drill 1) (layers *.Cu *.Mask)
    (zone_connect 1) (tstamp 690d3e5c-c6d3-4096-8b73-48feb2db87b8))
  (pad "C2" thru_hole circle (at 76.2 5.08) (size 1.7 1.7) (drill 1) (layers *.Cu *.Mask)
    (zone_connect 1) (tstamp f4faac8a-66b3-40d6-adb5-4c17adba562b))
  (pad "C3" thru_hole circle (at 73.66 5.08) (size 1.7 1.7) (drill 1) (layers *.Cu *.Mask)
    (zone_connect 1) (tstamp 42bf7ba6-5b71-454c-a4e1-56eb9ece7066))
  (pad "C4" thru_hole circle (at 71.12 5.08) (size 1.7 1.7) (drill 1) (layers *.Cu *.Mask)
    (zone_connect 1) (tstamp 6e5fae91-e392-4d3a-80ad-27e3eefab51a))
  (pad "C5" thru_hole circle (at 68.58 5.08) (size 1.7 1.7) (drill 1) (layers *.Cu *.Mask)
    (zone_connect 1) (tstamp cfc6f645-c7b5-4dc5-a56e-96fd94c44c83))
  (pad "C6" thru_hole circle (at 66.04 5.08) (size 1.7 1.7) (drill 1) (layers *.Cu *.Mask)
    (zone_connect 1) (tstamp ca20c52e-9e40-4333-9e67-74a7afd4fc8f))
  (pad "C7" thru_hole circle (at 63.5 5.08) (size 1.7 1.7) (drill 1) (layers *.Cu *.Mask)
    (zone_connect 1) (tstamp 8ef78744-56ec-4814-8179-99582484bf4c))
  (pad "C8" thru_hole circle (at 60.96 5.08) (size 1.7 1.7) (drill 1) (layers *.Cu *.Mask)
    (zone_connect 1) (tstamp 842c341b-0b1d-451c-876d-71b9ae612f3f))
  (pad "C9" thru_hole circle (at 58.42 5.08) (size 1.7 1.7) (drill 1) (layers *.Cu *.Mask)
    (zone_connect 1) (tstamp ba17b3d7-c248-45fa-b526-68df395aa301))
  (pad "C10" thru_hole circle (at 55.88 5.08) (size 1.7 1.7) (drill 1) (layers *.Cu *.Mask)
    (zone_connect 1) (tstamp 43e0442b-51a8-48d5-8dc0-8a4b690dc18c))
  (pad "C11" thru_hole circle (at 53.34 5.08) (size 1.7 1.7) (drill 1) (layers *.Cu *.Mask)
    (zone_connect 1) (tstamp 62b2be9c-12cf-4714-b606-dfcd040ad15d))
  (pad "C12" thru_hole circle (at 50.8 5.08) (size 1.7 1.7) (drill 1) (layers *.Cu *.Mask)
    (zone_connect 1) (tstamp e892ed3e-f082-46f3-84d6-e07011c6c68d))
  (pad "C13" thru_hole circle (at 48.26 5.08) (size 1.7 1.7) (drill 1) (layers *.Cu *.Mask)
    (zone_connect 1) (tstamp 77eec1af-d9be-4c23-87c9-a1807e2386af))
  (pad "C14" thru_hole circle (at 45.72 5.08) (size 1.7 1.7) (drill 1) (layers *.Cu *.Mask)
    (zone_connect 1) (tstamp 1d50598b-c26e-4d88-a16b-6b14c5d283c0))
  (pad "C15" thru_hole circle (at 43.18 5.08) (size 1.7 1.7) (drill 1) (layers *.Cu *.Mask)
    (zone_connect 1) (tstamp 59490c34-7d50-40a8-b7cc-ab0919c75cab))
  (pad "C16" thru_hole circle (at 40.64 5.08) (size 1.7 1.7) (drill 1) (layers *.Cu *.Mask)
    (zone_connect 1) (tstamp 125e8a4a-04ea-4c0a-9480-7031d9ed1842))
  (pad "C17" thru_hole circle (at 38.1 5.08) (size 1.7 1.7) (drill 1) (layers *.Cu *.Mask)
    (zone_connect 1) (tstamp 8edd3526-cd81-483b-9b21-a18331fc57fb))
  (pad "C18" thru_hole circle (at 35.56 5.08) (size 1.7 1.7) (drill 1) (layers *.Cu *.Mask)
    (zone_connect 1) (tstamp db73ea9c-6e2d-44d7-aaee-1d98217edb40))
  (pad "C19" thru_hole circle (at 33.02 5.08) (size 1.7 1.7) (drill 1) (layers *.Cu *.Mask)
    (zone_connect 1) (tstamp 8da056fb-7c3b-4e8f-b4b7-58a3bccc99cc))
  (pad "C20" thru_hole circle (at 30.48 5.08) (size 1.7 1.7) (drill 1) (layers *.Cu *.Mask)
    (zone_connect 1) (tstamp a08b4303-f0f6-4297-bbf1-c5ecbb69d8ee))
  (pad "C21" thru_hole circle (at 27.94 5.08) (size 1.7 1.7) (drill 1) (layers *.Cu *.Mask)
    (zone_connect 1) (tstamp de0f2a7b-4d66-4c13-bb26-f4b31f7d6bd3))
  (pad "C22" thru_hole circle (at 25.4 5.08) (size 1.7 1.7) (drill 1) (layers *.Cu *.Mask)
    (zone_connect 1) (tstamp df0ce0d8-519e-42fe-b4a1-573f04ce1da4))
  (pad "C23" thru_hole circle (at 22.86 5.08) (size 1.7 1.7) (drill 1) (layers *.Cu *.Mask)
    (zone_connect 1) (tstamp ec7233f1-5086-4c7f-95f6-82309cec63ff))
  (pad "C24" thru_hole circle (at 20.32 5.08) (size 1.7 1.7) (drill 1) (layers *.Cu *.Mask)
    (zone_connect 1) (tstamp 6c529dbd-499c-4ee7-8092-b697b6a86195))
  (pad "C25" thru_hole circle (at 17.78 5.08) (size 1.7 1.7) (drill 1) (layers *.Cu *.Mask)
    (zone_connect 1) (tstamp 41692b90-2d07-4242-9141-2265c0ac1b2e))
  (pad "C26" thru_hole circle (at 15.24 5.08) (size 1.7 1.7) (drill 1) (layers *.Cu *.Mask)
    (zone_connect 1) (tstamp f94cdbc1-272c-42a9-a528-db62626beadc))
  (pad "C27" thru_hole circle (at 12.7 5.08) (size 1.7 1.7) (drill 1) (layers *.Cu *.Mask)
    (zone_connect 1) (tstamp 0e948244-77b6-456d-876c-1f0612f7bc87))
  (pad "C28" thru_hole circle (at 10.16 5.08) (size 1.7 1.7) (drill 1) (layers *.Cu *.Mask)
    (zone_connect 1) (tstamp d07718dc-5a03-4417-bb34-206bd1c234dc))
  (pad "C29" thru_hole circle (at 7.62 5.08) (size 1.7 1.7) (drill 1) (layers *.Cu *.Mask)
    (zone_connect 1) (tstamp 206b4adc-f9c7-4c00-815c-fffa8303dfc3))
  (pad "C30" thru_hole circle (at 5.08 5.08) (size 1.7 1.7) (drill 1) (layers *.Cu *.Mask)
    (zone_connect 1) (tstamp 391ce860-8332-441d-866d-e92b4c41de37))
  (pad "C31" thru_hole circle (at 2.54 5.08) (size 1.7 1.7) (drill 1) (layers *.Cu *.Mask)
    (zone_connect 1) (tstamp 523f95bc-77aa-4013-aa40-f377a2833984))
  (pad "C32" thru_hole circle (at 0 5.08) (size 1.7 1.7) (drill 1) (layers *.Cu *.Mask)
    (zone_connect 1) (tstamp 23e06025-fffc-403d-9c13-d179fdcca16a))
  (model "${KISYS3DMOD}/Connector_DIN.3dshapes/DIN41612_B_2x32_Horizontal.wrl"
    (offset (xyz 0 0 0))
    (scale (xyz 1 1 1))
    (rotate (xyz 0 0 0))
  )
  (model "${KIPRJMOD}/86093967113755elf.stp"
    (offset (xyz -7.5 12.5 0))
    (scale (xyz 1 1 1))
    (rotate (xyz 180 0 0))
  )
)
