(footprint "MAG-003-00" (version 20201220) (generator pcbnew) (layer "F.Cu")
  (tedit 5FEA5FEB)
  (fp_text reference "REF**" (at 0 -0.5 unlocked) (layer "F.SilkS")
    (effects (font (size 1 1) (thickness 0.15)))
    (tstamp 41a7878b-646b-4715-8782-176723574a92)
  )
  (fp_text value "MAG-003-00" (at 0 1 unlocked) (layer "F.Fab")
    (effects (font (size 1 1) (thickness 0.15)))
    (tstamp 6fcb1659-04bd-4df9-9c50-1c945018e55b)
  )
  (fp_text user "Height: 13.5mm" (at -4.5 9.5 unlocked) (layer "Dwgs.User")
    (effects (font (size 1 1) (thickness 0.15)))
    (tstamp 08045dec-db1f-421c-8006-b56accd5e147)
  )
  (fp_text user "${REF}" (at 0 2.5 unlocked) (layer "F.Fab")
    (effects (font (size 1 1) (thickness 0.15)))
    (tstamp 55a460f6-14d9-45ae-984d-28f0949491c9)
  )
  (fp_line (start -10.5 10.5) (end 10.5 10.5) (layer "F.SilkS") (width 0.12) (tstamp 1e25ef19-342e-4a08-916c-94fad25ed371))
  (fp_line (start 10.5 -10.5) (end -10.5 -10.5) (layer "F.SilkS") (width 0.12) (tstamp 2f060c92-81e4-4f01-b354-d79972f538a6))
  (fp_line (start 10.5 -1.5) (end 10.5 -10.5) (layer "F.SilkS") (width 0.12) (tstamp 554bb0a3-4490-43c6-9038-31b392c3fb28))
  (fp_line (start -10.5 -10.5) (end -10.5 10.5) (layer "F.SilkS") (width 0.12) (tstamp 8237655a-79f9-4151-8187-181997988e0c))
  (fp_line (start 10.5 10.5) (end 10.5 1.5) (layer "F.SilkS") (width 0.12) (tstamp d66334e4-f386-457f-9738-e5d3b74dd942))
  (fp_line (start 0 0) (end 0 0) (layer "F.CrtYd") (width 0.1) (tstamp 23bdfc83-9d30-4c13-879d-22ff98e83741))
  (fp_line (start 0 0) (end 0 0) (layer "F.CrtYd") (width 0.1) (tstamp 5ad99029-9e57-4a4a-9e1b-fee224299b1f))
  (fp_line (start 0 0) (end 0 0) (layer "F.CrtYd") (width 0.1) (tstamp 6e32bccc-de37-45b0-8b10-e77e6faeaedb))
  (fp_line (start 0 0) (end 0 0) (layer "F.CrtYd") (width 0.1) (tstamp f4b58308-d23f-4082-9bdd-a4ccba43ada6))
  (pad "1" thru_hole circle (at 10.16 0) (size 2 2) (drill 1.3) (layers *.Cu *.Mask) (tstamp c96ae3b2-f513-4aef-8e63-8ff2bd73b2d0))
  (pad "2" thru_hole circle (at 5.08 -5.08) (size 2 2) (drill 1.3) (layers *.Cu *.Mask) (tstamp 29f70484-13ed-40b4-a5ba-18ab243b0086))
  (pad "3" thru_hole circle (at 2.54 -7.62) (size 2 2) (drill 1.3) (layers *.Cu *.Mask) (tstamp 8682c8e0-f462-49a7-bd09-46741da6f1be))
  (pad "4" thru_hole circle (at -2.54 -7.62) (size 2 2) (drill 1.3) (layers *.Cu *.Mask) (tstamp 4847f2f3-d6c1-4952-89d3-3400b1c77cf9))
  (pad "5" thru_hole circle (at -5.08 -5.08) (size 2 2) (drill 1.3) (layers *.Cu *.Mask) (tstamp 2e555c4a-f8d1-42d3-a8c2-8c6104234454))
  (pad "6" thru_hole circle (at -5.08 5.08) (size 2 2) (drill 1.3) (layers *.Cu *.Mask) (tstamp ac8073c3-6b7c-478a-b8bd-cd90c33a3def))
  (pad "7" thru_hole circle (at -2.54 7.62) (size 2 2) (drill 1.3) (layers *.Cu *.Mask) (tstamp 1720a541-1ef8-45b4-be7c-b8e21cdbbbac))
  (pad "8" thru_hole circle (at 2.54 7.62) (size 2 2) (drill 1.3) (layers *.Cu *.Mask) (tstamp 7a0b5860-b85c-4ae7-9470-a6fac0c416b2))
  (pad "9" thru_hole circle (at 5.08 5.08) (size 2 2) (drill 1.3) (layers *.Cu *.Mask) (tstamp 6dbf9592-afb8-49e2-ae37-3b5120ed459b))
  (pad "F1" thru_hole circle (at -10 11.5) (size 1.524 1.524) (drill 0.762) (layers *.Cu *.Mask) (tstamp 3c101800-a4c6-4ea3-9869-84dc1e565719))
  (pad "F2" thru_hole circle (at -7.5 11.5) (size 1.524 1.524) (drill 0.762) (layers *.Cu *.Mask) (tstamp 146237b5-2054-4b9a-8d40-8cf312f694d1))
)
