(module "MillMax-0327" (layer F.Cu) (tedit 5F6052D6)
  (fp_text reference "REF**" (at 0 -3 unlocked) (layer F.SilkS)
    (effects (font (size 1 1) (thickness 0.15)))
    (tstamp 06d234a6-cad7-4d97-8753-d7f6d8ae04ee)
  )
  (fp_text value "MillMax-0327" (at 0 3 unlocked) (layer F.Fab)
    (effects (font (size 1 1) (thickness 0.15)))
    (tstamp ec891112-f459-42b1-acc8-2ec17b99400e)
  )
  (fp_text user "${REF}" (at 0 5 unlocked) (layer F.Fab)
    (effects (font (size 1 1) (thickness 0.15)))
    (tstamp 6357ce7e-a5cd-48b5-9613-9a963105cde5)
  )
  (pad "1" thru_hole circle (at 0 0) (size 2.9 2.9) (drill 1.905) (layers *.Cu *.Mask) (tstamp 93124745-dc9f-48e9-977d-ecbdaa2957b0))
)
