(footprint "TO-92_Socketed" (version 20201220) (generator pcbnew) (layer "F.Cu")
  (tedit 5FE833B1)
  (descr "TO-92 in three Mill-Max 0667-0-15-01-30-27-10-0")
  (attr through_hole)
  (fp_text reference "REF**" (at 2.55 -4.19) (layer "F.SilkS")
    (effects (font (size 1 1) (thickness 0.15)))
    (tstamp a747aa5d-65d1-4217-8f5b-4b29e425c8cd)
  )
  (fp_text value "TO-92_Socketed" (at 2.54 2.79) (layer "F.Fab")
    (effects (font (size 1 1) (thickness 0.15)))
    (tstamp 9b32a3a0-a459-4cf3-adcc-a05276e380e4)
  )
  (fp_text user "${REFERENCE}" (at 2.54 0) (layer "F.Fab")
    (effects (font (size 1 1) (thickness 0.15)))
    (tstamp 3d47c86e-e6fd-47ea-91ce-8a3f464bfd67)
  )
  (fp_line (start 0.74 1.85) (end 4.34 1.85) (layer "F.SilkS") (width 0.12) (tstamp f1754042-eb3b-4fb8-8f04-087213b7b16a))
  (fp_arc (start 2.8 -0.25) (end 4.773356 -1.323355) (angle -32.91433524) (layer "F.SilkS") (width 0.12) (tstamp 5fba571a-6390-4bdd-9c92-50ee6db8c78f))
  (fp_arc (start 2.273355 -0.226644) (end 1.2 -2.2) (angle -32.91433524) (layer "F.SilkS") (width 0.12) (tstamp 631a3a14-17b6-4ec8-b00b-082acdb9ecf1))
  (fp_arc (start 2.515716 -0.02495) (end 4.34 1.85) (angle -16.61706543) (layer "F.SilkS") (width 0.12) (tstamp b0c9c0cc-8a6a-4b4c-962a-cd0759a1fd95))
  (fp_arc (start 3.108817 -0.584617) (end 0.74 1.85) (angle 13.09490949) (layer "F.SilkS") (width 0.12) (tstamp cbadba2e-2530-40c9-af58-10b5e1477fab))
  (fp_line (start -1.01 -3.55) (end -1.01 2.01) (layer "F.CrtYd") (width 0.05) (tstamp 763b3004-068f-4aea-9925-1c91fcb5fb79))
  (fp_line (start 6.09 2.01) (end 6.09 -3.55) (layer "F.CrtYd") (width 0.05) (tstamp 79641864-0ed3-4ae3-b67d-0ea9143d840c))
  (fp_line (start 6.09 2.01) (end -1.01 2.01) (layer "F.CrtYd") (width 0.05) (tstamp 875a497a-9094-4e17-84e1-15ce7f31bda3))
  (fp_line (start -1.01 -3.55) (end 6.09 -3.55) (layer "F.CrtYd") (width 0.05) (tstamp af22c09d-9b0a-4bef-8700-d308c864331f))
  (fp_line (start 0.8 1.75) (end 4.3 1.75) (layer "F.Fab") (width 0.1) (tstamp a6a4da7d-b12a-4080-8560-342c382bb914))
  (fp_arc (start 2.54 0) (end 2.54 -2.48) (angle 135) (layer "F.Fab") (width 0.1) (tstamp 6351e060-37ef-462a-af13-76e487c2fbfc))
  (fp_arc (start 2.54 0) (end 2.54 -2.48) (angle -135) (layer "F.Fab") (width 0.1) (tstamp 9fc4229b-6d50-43f0-87c3-6bdd2c5ae94b))
  (pad "1" thru_hole oval (at 0 0) (size 2.4 2.4) (drill 1.4478) (layers *.Cu *.Mask) (tstamp 640eaa32-1898-4f4a-9670-65436d452bb7))
  (pad "2" thru_hole circle (at 2.54 -2.54) (size 2.4 2.4) (drill 1.4478) (layers *.Cu *.Mask) (tstamp c76b9428-c34f-4527-8bbc-b64390b3eee3))
  (pad "3" thru_hole circle (at 5.08 0) (size 2.4 2.4) (drill 1.4478) (layers *.Cu *.Mask) (tstamp 60f232bf-5afd-4bce-99ca-a0e63129fc24))
  (model "${KISYS3DMOD}/Package_TO_SOT_THT.3dshapes/TO-92_Wide.wrl"
    (offset (xyz 0 0 0))
    (scale (xyz 1 1 1))
    (rotate (xyz 0 0 0))
  )
  (model "${KIPRJMOD}/../../libraries/3d/mill-max-0667-0-15-80-30-XX-10-0.step"
    (offset (xyz 0 0 0.5))
    (scale (xyz 1 1 1))
    (rotate (xyz 0 -90 0))
  )
  (model "${KIPRJMOD}/../../libraries/3d/mill-max-0667-0-15-80-30-XX-10-0.step"
    (offset (xyz 5.08 0 0.5))
    (scale (xyz 1 1 1))
    (rotate (xyz 0 -90 0))
  )
  (model "${KIPRJMOD}/../../libraries/3d/mill-max-0667-0-15-80-30-XX-10-0.step"
    (offset (xyz 2.54 2.54 0.5))
    (scale (xyz 1 1 1))
    (rotate (xyz 0 -90 0))
  )
)
