(module "TrimCap-Generic" (layer F.Cu) (tedit 5F67CEFD)
  (attr through_hole)
  (fp_text reference "REF**" (at 0 -1.5 unlocked) (layer F.SilkS)
    (effects (font (size 1 1) (thickness 0.15)))
    (tstamp a0d4903a-548a-4ef3-9b09-4f8652d4f3ff)
  )
  (fp_text value "TrimCap-Generic" (at 0 0 unlocked) (layer F.Fab)
    (effects (font (size 1 1) (thickness 0.15)))
    (tstamp 3f8e5f19-e066-43a6-bc00-7c4b1a135cc6)
  )
  (fp_text user "REF**" (at 0 1.5 unlocked) (layer F.Fab)
    (effects (font (size 1 1) (thickness 0.15)))
    (tstamp 84e56c08-df2f-41a5-9154-87712b112073)
  )
  (fp_circle (center 0 0) (end 3.5 0) (layer F.SilkS) (width 0.12) (tstamp edcc9f8e-4b1b-4e95-8eb9-9f71a092f61b))
  (fp_circle (center 0 0) (end 4 0) (layer F.CrtYd) (width 0.05) (tstamp 5bbc2809-3b4b-4b59-88cf-f8c2ec4457e7))
  (pad "1" thru_hole circle (at -2.5 0) (size 2 2) (drill 1.2) (layers *.Cu *.Mask) (tstamp 1a0f6f7b-294d-4f10-8320-b06298fcdd40))
  (pad "2" thru_hole circle (at 2.5 0) (size 2 2) (drill 1.2) (layers *.Cu *.Mask) (tstamp fc9a35c1-83f3-43bc-be83-23639089f2e1))
)
