(version 1)

# Per JLC, hole-to-hole on different nets is wider than same-net
(rule hole_to_hole
	(constraint clearance (min 0.5mm))
	(condition "A.Type == 'Hole' && B.Type == 'Hole' && A.Net != B.Net"))